<?xml version="1.0" encoding="utf-8"?>
<!-- Generator: Adobe Illustrator 23.0.3, SVG Export Plug-In . SVG Version: 6.00 Build 0)  -->
<svg version="1.1" id="logo" xmlns="http://www.w3.org/2000/svg" xmlns:xlink="http://www.w3.org/1999/xlink" x="0px" y="0px"
	 viewBox="0 0 1342.4 106.7" style="enable-background:new 0 0 1342.4 106.7;" xml:space="preserve">
<style type="text/css">
	.st0{fill:#8300C4;}
</style>
<g id="logo-arcane-letter-1">
	<path class="st0" d="M80,100h25L62.5,0H50v30"/>
	<path class="st0" d="M25,100H0L42.5,0H55v30"/>
</g>
<g id="logo-arcane-letter-2">
	<path class="st0" d="M110,0h20v100h-20"/>
	<path class="st0" d="M130,0h-20v25h20l30,25v10h20V40"/>
	<path class="st0" d="M130,100h-20V75h20l30-25V40h20v20"/>
	<path class="st0" d="M180,100h-25l-15-30h25"/>
</g>
<g id="logo-arcane-letter-3">
	<path class="st0" d="M220,0h30l-40,50v10h-25V40"/>
	<path class="st0" d="M220,100h30l-40-50V40h-25v20"/>
	<path class="st0" d="M250,0h-30l22.5,40h25"/>
	<path class="st0" d="M250,100h-30l22.5-40h25"/>
</g>
<g id="logo-arcane-letter-4">
	<path class="st0" d="M280,100h-25L297.5,0H310v30"/>
	<path class="st0" d="M335,100h25L317.5,0H305v30"/>
</g>
<g id="logo-arcane-letter-5">
	<path class="st0" d="M365,0h20v100h-20"/>
	<path class="st0" d="M365,10h20l60,80h-20"/>
	<path class="st0" d="M425,0h20v100h-20"/>
</g>
<g id="logo-arcane-letter-6">
	<path class="st0" d="M450,0h80v20h-80"/>
	<path class="st0" d="M460,40h60v20h-60"/>
	<path class="st0" d="M450,80h80v20h-80"/>
</g>
</svg>
