<?xml version="1.0" encoding="utf-8"?>
<!-- Generator: Adobe Illustrator 23.0.3, SVG Export Plug-In . SVG Version: 6.00 Build 0)  -->
<svg version="1.1" id="Layer_1" xmlns="http://www.w3.org/2000/svg" xmlns:xlink="http://www.w3.org/1999/xlink" x="0px" y="0px"
	 viewBox="0 0 512 512" style="enable-background:new 0 0 512 512;" xml:space="preserve">
<style type="text/css">
	.st0{fill:#AEB6C1;}
	.st1{fill:#C4CCD6;}
</style>
<path class="st0" d="M248.9,366.7c0.3-18.8-4.5-37.7-14.5-54.4l33.3-33.3L233,244.3l-33.3,33.3c-16.6-10-35.5-14.9-54.4-14.5
	l-12.2-45.5l-47.3,12.7L98,275.7c-8.1,4.5-15.8,10.2-22.7,17.1s-12.6,14.6-17.1,22.7l-45.5-12.2L0,350.7l45.5,12.2
	c-0.3,18.8,4.5,37.7,14.5,54.4l-33.3,33.3l34.7,34.6l33.3-33.3c16.6,10,35.5,14.9,54.4,14.5l12.2,45.5l47.3-12.7l-12.2-45.5
	c8.1-4.5,15.8-10.2,22.7-17.1s12.6-14.6,17.1-22.7l45.5,12.2l12.7-47.3L248.9,366.7z M184.5,402.1c-20.6,20.6-54,20.6-74.6,0
	c-20.6-20.6-20.6-54,0-74.6s54-20.6,74.6,0C205.1,348.1,205.1,381.5,184.5,402.1z"/>
<path class="st1" d="M463.1,173.5c2.5-9.3,3.6-18.8,3.4-28.2l45.5-12.2l-12.7-47.3L453.8,98c-4.6-8.3-10.3-16-17.1-22.8
	c-6.7-6.7-14.4-12.4-22.7-17l12.2-45.5L378.9,0l-12.2,45.5c-19.4-0.4-38.2,4.9-54.4,14.6L279,26.8l-34.6,34.7l33.3,33.3
	c-4.8,8-8.6,16.7-11.1,26.2c-2.5,9.3-3.6,18.8-3.4,28.2l-45.5,12.2l12.7,47.3l45.5-12.2c4.6,8.3,10.3,16,17.1,22.8
	c6.7,6.7,14.4,12.4,22.7,17l-12.2,45.5l47.3,12.7l12.2-45.5c19.4,0.4,38.2-4.9,54.4-14.6l33.3,33.3l34.6-34.6l-33.3-33.3
	C456.7,191.7,460.5,183,463.1,173.5z M415.7,160.9c-7.5,28.1-36.5,44.8-64.6,37.3c-8.9-2.4-17.1-7.1-23.6-13.6
	c-13.3-13.3-18.6-32.8-13.7-51c7.5-28.1,36.5-44.8,64.6-37.3c8.9,2.4,17.1,7.1,23.6,13.6C415.3,123.2,420.6,142.7,415.7,160.9z"/>
</svg>
