<?xml version="1.0" encoding="utf-8"?>
<!-- Generator: Adobe Illustrator 23.0.3, SVG Export Plug-In . SVG Version: 6.00 Build 0)  -->
<svg version="1.1" id="Layer_1" xmlns="http://www.w3.org/2000/svg" xmlns:xlink="http://www.w3.org/1999/xlink" x="0px" y="0px"
	 viewBox="0 0 63.6 146" style="enable-background:new 0 0 63.6 146;" xml:space="preserve">
<style type="text/css">
	.st0{fill-rule:evenodd;clip-rule:evenodd;fill:#FFFFFF;}
	.st1{fill-rule:evenodd;clip-rule:evenodd;fill:#A6A385;}
	.st2{fill-rule:evenodd;clip-rule:evenodd;fill:#499D4A;}
	.st3{fill-rule:evenodd;clip-rule:evenodd;fill:#58AA50;}
</style>
<g>
	<g>
		<g>
			<path class="st0" d="M35.1,142.3l-3.8-1.3c0,0,0.5-19.3-6.5-20.7c-4.6-5.4,0.7-227,17.3-0.7c0,0-5.7,2.9-6.7,7.8
				C34.3,132.2,35.1,142.3,35.1,142.3L35.1,142.3L35.1,142.3z"/>
			<path class="st1" d="M35.1,142.3l-3.8-1.3c0,0,0.5-19.3-6.5-20.7c-4.6-5.4,0.7-227,17.3-0.7c0,0-5.7,2.9-6.7,7.8
				C34.3,132.2,35.1,142.3,35.1,142.3L35.1,142.3L35.1,142.3z"/>
			<path class="st0" d="M37.1,123.7c0,0,33.1-21.8,25.4-67.1C55,23.6,37.4,12.8,35.4,8.7c-2.1-3-4.2-8.1-4.2-8.1l1.4,91.6
				C32.7,92.3,29.8,120.3,37.1,123.7"/>
			<path class="st2" d="M37.1,123.7c0,0,33.1-21.8,25.4-67.1C55,23.6,37.4,12.8,35.4,8.7c-2.1-3-4.2-8.1-4.2-8.1l1.4,91.6
				C32.7,92.3,29.8,120.3,37.1,123.7"/>
			<path class="st0" d="M29.3,124.9c0,0-31.1-21.2-29.3-58.6C1.8,28.9,23.8,10.5,28,7.2c2.8-3,2.9-4.1,3-7
				c1.9,4.2,1.6,62.1,1.8,68.9C33.8,95.4,31.5,119.9,29.3,124.9L29.3,124.9L29.3,124.9z"/>
			<path class="st3" d="M29.3,124.9c0,0-31.1-21.2-29.3-58.6C1.8,28.9,23.8,10.5,28,7.2c2.8-3,2.9-4.1,3-7
				c1.9,4.2,1.6,62.1,1.8,68.9C33.8,95.4,31.5,119.9,29.3,124.9L29.3,124.9L29.3,124.9z"/>
		</g>
	</g>
</g>
</svg>
