<?xml version="1.0" encoding="utf-8"?>
<!-- Generator: Adobe Illustrator 23.0.3, SVG Export Plug-In . SVG Version: 6.00 Build 0)  -->
<svg version="1.1" id="Layer_1" xmlns="http://www.w3.org/2000/svg" xmlns:xlink="http://www.w3.org/1999/xlink" x="0px" y="0px"
	 viewBox="0 0 256 221" style="enable-background:new 0 0 256 221;" xml:space="preserve">
<style type="text/css">
	.st0{fill:#41B883;}
	.st1{fill:#46647F;}
</style>
<g>
	<path class="st0" d="M204.8,0H256L128,220.8L0,0h50.6h47.4L128,51.2L157.4,0H204.8z"/>
	<path class="st0" d="M0,0l128,220.8L256,0h-51.2L128,132.5L50.6,0H0z"/>
	<path class="st1" d="M50.6,0L128,133.1L204.8,0h-47.4L128,51.2L97.9,0H50.6z"/>
</g>
</svg>
